date,t1,t2,tv,tn
2021-04-05 11:05:33,37.8,35.8,26.3,8.04
2021-04-05 11:08:25,37.8,35.8,26.3,8.04
2021-04-05 11:11:16,37.8,35.8,26.3,8.04
2021-04-05 11:14:07,37.8,35.8,26.4,8.04
2021-04-05 11:16:59,37.8,35.8,26.1,8.04
2021-04-05 11:19:50,37.8,35.8,26.1,8.04
2021-04-05 11:22:42,37.8,35.8,26,8.04
2021-04-05 11:25:33,37.8,35.8,26.1,8.04
2021-04-05 11:28:25,37.8,35.8,26.1,9.1
2021-04-05 11:31:15,37.8,35.8,26.1,9.1
2021-04-05 11:34:07,37.8,35.8,26.2,9.1
2021-04-05 11:36:58,37.8,35.8,26.2,9.1
2021-04-05 11:39:50,37.8,35.8,26.3,9.1
2021-04-05 11:42:42,37.8,35.8,26.3,9.1
2021-04-05 11:45:33,37.8,35.8,26.4,9.1
2021-04-05 11:48:24,37.8,35.9,26.4,9.1
2021-04-05 11:51:16,37.8,35.8,26.3,9.1
2021-04-05 11:54:07,37.9,35.8,26.3,9.1
2021-04-05 11:56:59,37.9,35.8,26.3,9.1
2021-04-05 11:59:51,37.8,35.8,25.9,9.1
